[
  {
    "text": "play mariokart",
    "author": "shaun",
    "points": 50
  },
  {
    "text": "by some bread",
    "author": "mario",
    "points": 50
  },
  {
    "text": "do the plumming",
    "author": "luigi",
    "points": 50
  }
]